{"id":"1","name":"Mike","surname":"Jones","ssCode":"123456-11111"}
{"id":"2","name":"Jake","surname":"Smith","ssCode":"234567-11111"}
{"id":"3","name":"Joe","surname":"Williams","ssCode":"345678-11111"}
